[
  {
    "AssociateId": "1000243",
    "StartTime": "2017-01-04T08:15:00",
    "EndTime": "2017-01-05T08:00:00",
    "SiteId": "1000554",
    "JobName": "Sales Associate",
    "CaptureTime": "2017-01-04T12:01:21.653"
  },
  {
    "AssociateId": "1000243",
    "StartTime": "2017-01-03T08:15:00",
    "EndTime": "2017-01-04T08:00:00",
    "SiteId": "1000554",
    "JobName": "Sales Associate",
    "CaptureTime": "2017-01-03T22:02:04.693"
  }
]