{
  "resource": [
    {
      "id": 1,
      "type": "pick",
      "status": "open",
      "priority": "low",
      "quantity": 5,
      "location": "tbd",
      "orderNum": "1480441982",
      "customer": "Jodie Dagan",
      "assocID": null,
      "assignee": "XYZ",
      "itemNum": "LS0018",
      "itemName": "Cloud Scribe",
      "itemImage": "data:image/jpeg;base64, "
    },
    {
      "id": 1,
      "type": "put",
      "status": "open",
      "priority": "low",
      "quantity": 5,
      "location": "tbd",
      "orderNum": "1480441982",
      "customer": "Jodie Dagan",
      "assocID": null,
      "assignee": "XYZ",
      "itemNum": "LS0018",
      "itemName": "Cloud Scribe",
      "itemImage": "data:image/jpeg;base64, "
    },
    {
      "id": 1,
      "type": "pick",
      "status": "open",
      "priority": "low",
      "quantity": 5,
      "location": "tbd",
      "orderNum": "1480441982",
      "customer": "Jodie Dagan",
      "assocID": null,
      "assignee": "XYZ",
      "itemNum": "SH0001",
      "itemName": "Tri-Fi Router & Powerbank",
      "itemImage": "data:image/jpeg;base64, "
    },
    {
      "id": 1,
      "type": "pick",
      "status": "open",
      "priority": "low",
      "quantity": 5,
      "location": "tbd",
      "orderNum": "1480441982",
      "customer": "Jodie Dagan",
      "assocID": null,
      "assignee": "XYZ",
      "itemNum": "SH0001",
      "itemName": "Tri-Fi Router & Powerbank",
      "itemImage": "data:image/jpeg;base64, "
    }
  ]
}
