{
  "Store": "2455 Paces Ferry Rd SE, Atlanta",
  "Name": "Whirlpool 4.5 cu. ft. High-Efficiency Front Load Washer",
  "ID": "#156859972",
  "Category": "Electronics",
  "Variants": [
    {
      "Size": "1",
      "Color": "White",
      "Price": "605",
      "SOH": {
        "Shelf": "0",
        "BackRoom": "0"
      }
    },
    {
      "Size": "1",
      "Color": "Biege",
      "Price": "605",
      "SOH": {
        "Shelf": "9",
        "BackRoom": "3"
      }
    },
    {
      "Size": "1",
      "Color": "Grey",
      "Price": "605",
      "SOH": {
        "Shelf": "11",
        "BackRoom": "7"
      }
    }
  ]
}