{
  "Name": "Whirlpool 4.5 cu. ft. High-Efficiency Front Load Washer",
  "ID": "#156859972",
  "Category": "Electronics",
  "Stores": [
    {
      "Name": "1032 Research Center Dr SW, Atlanta",
      "id": "LOC3235413",
      "Distance": "21 mts"
    },
    {
      "Name": "Lindbergh Plaza, 2525 Piedmont Rd NE, Atlanta",
      "id": "LOC3763451",
      "Distance": "47 mts"
    }
  ]
}