{
  "project_info": {
    "project_number": "85220377181",
    "firebase_url": "https://associateapp-4c40c.firebaseio.com",
    "project_id": "associateapp-4c40c",
    "storage_bucket": "associateapp-4c40c.appspot.com"
  },
  "client": [
    {
      "client_info": {
        "mobilesdk_app_id": "1:85220377181:android:b9cb305402da2a6e",
        "android_client_info": {
          "package_name": "com.cognizant.retailamate.jda"
        }
      },
      "oauth_client": [
        {
          "client_id": "85220377181-rm5pic181icsddh290h8kklmp93pjpm4.apps.googleusercontent.com",
          "client_type": 3
        }
      ],
      "api_key": [
        {
          "current_key": "AIzaSyAzwVT7Kgrke5hueVbf3uhkkw1lxDjkDUg"
        }
      ],
      "services": {
        "analytics_service": {
          "status": 1
        },
        "appinvite_service": {
          "status": 1,
          "other_platform_oauth_client": []
        },
        "ads_service": {
          "status": 2
        }
      }
    }
  ],
  "configuration_version": "1"
}